INDEX VERSION 1.4+D:\V2\.metadata\.plugins\org.eclipse.wst.jsdt.core\indexes
2590010799.index
1364243086.index
934517800.index
1906791269.index
574010821.index
2836821737.index
3294778698.index
1008704829.index
312744489.index
